…
+  summarize("mean_size"=mean(size, na.rm=T),
+  'sum_size'=sum(size, na.rm=T))
# A tibble: 2 x 3
  founder mean_size sum_size
* <lgl>       <dbl>    <dbl>
1 FALSE        790.  4391390
2 TRUE         110.    79184
> 
> # top 10 jobs by gross contributions
> prop67 %>%
+  group_by(job) %>%
+  summarise("N"=n()) %>%
+  arrange(desc(N)) %>%
+  mutate("mean"=sum())
# A tibble: 652 x 3
   job                   N  mean
   <chr>             <int> <int>
 1 RETIRED             952     0
 2 UNEMPLOYED          872     0
 3 TEACHER             171     0
 4 ATTORNEY            127     0
 5 N/A                 118     0
 6 ENGINEER            108     0
 7 OWNER                92     0
 8 PROFESSOR            90     0
 9 SOFTWARE ENGINEER    82     0
10 PHYSICIAN            75     0
# … with 642 more rows
> 
> # top 10 by avg contribution size
> prop67 %>% group_by(job) %>%
+ 	summarise("avgsize"=mean(size, na.rm = T),
+  "contribs"=n(), amount=sum(amount, na.rm=T)) %>%
+  arrange(desc(avgsize))
# A tibble: 652 x 4
   job                           avgsize contribs  amount
   <chr>                           <dbl>    <int>   <dbl>
 1 "BUSINESSWOMAN"               100000         1  100000
 2 ""                             51085.       69 3524862
 3 "ADVOCACY & PHILANTHROPY"      50000         1   50000
 4 "STAFF & OPERATIONS MANAGER"   25000         1   25000
 5 "EXECUTIVE DIRECTOR"            6042.       18  108750
 6 "CHIEF EXECUTIVE OFFICER"       1000         2    2000
 7 "GENERAL COUNSEL"               1000         1    1000
 8 "RESEARCH MANAGER"              1000         2    2000
 9 "ACCOUNT REPRESENTATIVE"         500         2    1000
10 "BUSINESS OPERATIONS MANAGER"    500         2    1000
# … with 642 more rows
…
